{
  "set_seats": [
    {
      "seat": [
        {
          "x": 1,
          "y": 2
        },
        {
          "x": 1,
          "y": 3
        }
      ]
    },
    {
      "seat": [
        {
          "x": 1,
          "y": 2
        },
        {
          "x": 2,
          "y": 3
        }
      ]
    },
    {
      "seat": [
        {
          "x": 4,
          "y": 2
        },
        {
          "x": 3,
          "y": 3
        }
      ]
    }
  ],
  "message": "Query Success"
}